Lista 2 - Transformação
…
Lista 2 - Transformação

Brenno Cordeiro

April 20, 2018

1. Questão 5.2.4 - 1

Atraso de chegada de duas horas ou mais

filter(flights, arr_delay >= 120)

## # A tibble: 10,200 x 19
##     year month   day dep_time sched_dep_time dep_delay arr_time
##    <int> <int> <int>    <int>          <int>     <dbl>    <int>
##  1  2013     1     1      811            630      101.     1047
##  2  2013     1     1      848           1835      853.     1001
##  3  2013     1     1      957            733      144.     1056
##  4  2013     1     1     1114            900      134.     1447
##  5  2013     1     1     1505           1310      115.     1638
##  6  2013     1     1     1525           1340      105.     1831
##  7  2013     1     1     1549           1445       64.     1912
##  8  2013     1     1     1558           1359      119.     1718
##  9  2013     1     1     1732           1630       62.     2028
## 10  2013     1     1     1803           1620      103.     2008
## # ... with 10,190 more rows, and 12 more variables: sched_arr_time <int>,
## #   arr_delay <dbl>, carrier <chr>, flight <int>, tailnum <chr>,
## #   origin <chr>, dest <chr>, air_time <dbl>, distance <dbl>, hour <dbl>,
## #   minute <dbl>, time_hour <dttm>

Voaram para Houston

filter(flights, dest %in% c('IAH', 'HOU'))

## # A tibble: 9,313 x 19
##     year month   day dep_time sched_dep_time dep_delay arr_time
##    <int> <int> <int>    <int>          <int>     <dbl>    <int>
##  1  2013     1     1      517            515        2.      830
##  2  2013     1     1      533            529        4.      850
##  3  2013     1     1      623            627       -4.      933
##  4  2013     1     1      728            732       -4.     1041
##  5  2013     1     1      739            739        0.     1104
##  6  2013     1     1      908            908        0.     1228
##  7  2013     1     1     1028           1026        2.     1350
##  8  2013     1     1     1044           1045       -1.     1352
##  9  2013     1     1     1114            900      134.     1447
## 10  2013     1     1     1205           1200        5.     1503
## # ... with 9,303 more rows, and 12 more variables: sched_arr_time <int>,
## #   arr_delay <dbl>, carrier <chr>, flight <int>, tailnum <chr>,
## #   origin <chr>, dest <chr>, air_time <dbl>, distance <dbl>, hour <dbl>,
## #   minute <dbl>, time_hour <dttm>

Foram operados por United, American ou Delta

filter(flights, carrier %in% c('UA', 'AA', 'DL'))

## # A tibble: 139,504 x 19
##     year month   day dep_time sched_dep_time dep_delay arr_time
##    <int> <int> <int>    <int>          <int>     <dbl>    <int>
##  1  2013     1     1      517            515        2.      830
##  2  2013     1     1      533            529        4.      850
##  3  2013     1     1      542            540        2.      923
##  4  2013     1     1      554            600       -6.      812
##  5  2013     1     1      554            558       -4.      740
##  6  2013     1     1      558            600       -2.      753
##  7  2013     1     1      558            600       -2.      924
##  8  2013     1     1      558            600       -2.      923
##  9  2013     1     1      559            600       -1.      941
## 10  2013     1     1      559            600       -1.      854
## # ... with 139,494 more rows, and 12 more variables: sched_arr_time <int>,
## #   arr_delay <dbl>, carrier <chr>, flight <int>, tailnum <chr>,
## #   origin <chr>, dest <chr>, air_time <dbl>, distance <dbl>, hour <dbl>,
## #   minute <dbl>, time_hour <dttm>

Partiram no verão

filter(flights, month %in% c(7:9))

## # A tibble: 86,326 x 19
##     year month   day dep_time sched_dep_time dep_delay arr_time
##    <int> <int> <int>    <int>          <int>     <dbl>    <int>
##  1  2013     7     1        1           2029      212.      236
##  2  2013     7     1        2           2359        3.      344
##  3  2013     7     1       29           2245      104.      151
##  4  2013     7     1       43           2130      193.      322
##  5  2013     7     1       44           2150      174.      300
##  6  2013     7     1       46           2051      235.      304
##  7  2013     7     1       48           2001      287.      308
##  8  2013     7     1       58           2155      183.      335
##  9  2013     7     1      100           2146      194.      327
## 10  2013     7     1      100           2245      135.      337
## # ... with 86,316 more rows, and 12 more variables: sched_arr_time <int>,
## #   arr_delay <dbl>, carrier <chr>, flight <int>, tailnum <chr>,
## #   origin <chr>, dest <chr>, air_time <dbl>, distance <dbl>, hour <dbl>,
## #   minute <dbl>, time_hour <dttm>

Chegaram com mais de duas horas de atraso, mas não sairam atrasados

filter(flights, arr_delay >= 120 & dep_delay <= 0)

## # A tibble: 29 x 19
##     year month   day dep_time sched_dep_time dep_delay arr_time
##    <int> <int> <int>    <int>          <int>     <dbl>    <int>
##  1  2013     1    27     1419           1420       -1.     1754
##  2  2013    10     7     1350           1350        0.     1736
##  3  2013    10     7     1357           1359       -2.     1858
##  4  2013    10    16      657            700       -3.     1258
##  5  2013    11     1      658            700       -2.     1329
##  6  2013     3    18     1844           1847       -3.       39
##  7  2013     4    17     1635           1640       -5.     2049
##  8  2013     4    18      558            600       -2.     1149
##  9  2013     4    18      655            700       -5.     1213
## 10  2013     5    22     1827           1830       -3.     2217
## # ... with 19 more rows, and 12 more variables: sched_arr_time <int>,
## #   arr_delay <dbl>, carrier <chr>, flight <int>, tailnum <chr>,
## #   origin <chr>, dest <chr>, air_time <dbl>, distance <dbl>, hour <dbl>,
## #   minute <dbl>, time_hour <dttm>

Foram adiadas por pelo menos uma hora, mas recuperaram mais de 30 minutos do atraso durante o voo

filter(flights, dep_delay >= 60 & sched_arr_time - arr_time >= 30)

## # A tibble: 4,608 x 19
##     year month   day dep_time sched_dep_time dep_delay arr_time
##    <int> <int> <int>    <int>          <int>     <dbl>    <int>
##  1  2013     1     1      848           1835      853.     1001
##  2  2013     1     1     2205           1720      285.       46
##  3  2013     1     1     2312           2000      192.       21
##  4  2013     1     1     2323           2200       83.       22
##  5  2013     1     1     2343           1724      379.      314
##  6  2013     1     2      126           2250      156.      233
##  7  2013     1     2     2145           1925      140.       54
##  8  2013     1     2     2225           1930      175.      231
##  9  2013     1     2     2259           2100      119.      122
## 10  2013     1     2     2309           2200       69.        5
## # ... with 4,598 more rows, and 12 more variables: sched_arr_time <int>,
## #   arr_delay <dbl>, carrier <chr>, flight <int>, tailnum <chr>,
## #   origin <chr>, dest <chr>, air_time <dbl>, distance <dbl>, hour <dbl>,
## #   minute <dbl>, time_hour <dttm>

Partiram entre meia-noite e 6 da manhã

filter(flights, dep_time <= 600)

## # A tibble: 9,344 x 19
##     year month   day dep_time sched_dep_time dep_delay arr_time
##    <int> <int> <int>    <int>          <int>     <dbl>    <int>
##  1  2013     1     1      517            515        2.      830
##  2  2013     1     1      533            529        4.      850
##  3  2013     1     1      542            540        2.      923
##  4  2013     1     1      544            545       -1.     1004
##  5  2013     1     1      554            600       -6.      812
##  6  2013     1     1      554            558       -4.      740
##  7  2013     1     1      555            600       -5.      913
##  8  2013     1     1      557            600       -3.      709
##  9  2013     1     1      557            600       -3.      838
## 10  2013     1     1      558            600       -2.      753
## # ... with 9,334 more rows, and 12 more variables: sched_arr_time <int>,
## #   arr_delay <dbl>, carrier <chr>, flight <int>, tailnum <chr>,
## #   origin <chr>, dest <chr>, air_time <dbl>, distance <dbl>, hour <dbl>,
## #   minute <dbl>, time_hour <dttm>

2. Questão 5.3.1 - 4

Maior distância

arrange(flights, desc(distance))

## # A tibble: 336,776 x 19
##     year month   day dep_time sched_dep_time dep_delay arr_time
##    <int> <int> <int>    <int>          <int>     <dbl>    <int>
##  1  2013     1     1      857            900       -3.     1516
##  2  2013     1     2      909            900        9.     1525
##  3  2013     1     3      914            900       14.     1504
##  4  2013     1     4      900            900        0.     1516
##  5  2013     1     5      858            900       -2.     1519
##  6  2013     1     6     1019            900       79.     1558
##  7  2013     1     7     1042            900      102.     1620
##  8  2013     1     8      901            900        1.     1504
##  9  2013     1     9      641            900     1301.     1242
## 10  2013     1    10      859            900       -1.     1449
## # ... with 336,766 more rows, and 12 more variables: sched_arr_time <int>,
## #   arr_delay <dbl>, carrier <chr>, flight <int>, tailnum <chr>,
## #   origin <chr>, dest <chr>, air_time <dbl>, distance <dbl>, hour <dbl>,
## #   minute <dbl>, time_hour <dttm>

Menor distância

arrange(flights, distance)

## # A tibble: 336,776 x 19
##     year month   day dep_time sched_dep_time dep_delay arr_time
##    <int> <int> <int>    <int>          <int>     <dbl>    <int>
##  1  2013     7    27       NA            106       NA        NA
##  2  2013     1     3     2127           2129       -2.     2222
##  3  2013     1     4     1240           1200       40.     1333
##  4  2013     1     4     1829           1615      134.     1937
##  5  2013     1     4     2128           2129       -1.     2218
##  6  2013     1     5     1155           1200       -5.     1241
##  7  2013     1     6     2125           2129       -4.     2224
##  8  2013     1     7     2124           2129       -5.     2212
##  9  2013     1     8     2127           2130       -3.     2304
## 10  2013     1     9     2126           2129       -3.     2217
## # ... with 336,766 more rows, and 12 more variables: sched_arr_time <int>,
## #   arr_delay <dbl>, carrier <chr>, flight <int>, tailnum <chr>,
## #   origin <chr>, dest <chr>, air_time <dbl>, distance <dbl>, hour <dbl>,
## #   minute <dbl>, time_hour <dttm>
…
Questão 5.7.1 - 4

flights %>%
  filter(!is.na(arr_delay), arr_delay > 0) %>%
  group_by(dest) %>%
  mutate(total_delay = sum(arr_delay), prop_delay = arr_delay / sum(arr_delay)) %>%
  select(year:day, total_delay, prop_delay, everything())

## # A tibble: 133,004 x 21
## # Groups:   dest [103]
##     year month   day total_delay prop_delay dep_time sched_dep_time
##    <int> <int> <int>       <dbl>      <dbl>    <int>          <int>
##  1  2013     1     1      99391.  0.000111       517            515
##  2  2013     1     1      99391.  0.000201       533            529
##  3  2013     1     1     140424.  0.000235       542            540
##  4  2013     1     1     283046.  0.0000424      554            558
##  5  2013     1     1     202605.  0.0000938      555            600
##  6  2013     1     1     283046.  0.0000283      558            600
##  7  2013     1     1     203226.  0.0000344      558            600
##  8  2013     1     1     110009.  0.000282       559            600
##  9  2013     1     1     300299.  0.0000400      600            600
## 10  2013     1     1     138258.  0.000116       602            605
## # ... with 132,994 more rows, and 14 more variables: dep_delay <dbl>,
## #   arr_time <int>, sched_arr_time <int>, arr_delay <dbl>, carrier <chr>,
## #   flight <int>, tailnum <chr>, origin <chr>, dest <chr>, air_time <dbl>,
## #   distance <dbl>, hour <dbl>, minute <dbl>, time_hour <dttm>
